<?xml version="1.0" encoding="UTF-8" standalone="no" ?>
<!DOCTYPE svg PUBLIC "-//W3C//DTD SVG 1.1//EN" "http://www.w3.org/Graphics/SVG/1.1/DTD/svg11.dtd">
<svg xmlns="http://www.w3.org/2000/svg" xmlns:xlink="http://www.w3.org/1999/xlink" version="1.1" width="339" height="314" viewBox="0 0 339 314" xml:space="preserve">
<desc>Created with Fabric.js 3.6.3</desc>
<defs>
</defs>
<g transform="matrix(1 0 0 1 169.99 157.22)" id="logo_art"  >
<path style="stroke: none; stroke-width: 1; stroke-dasharray: none; stroke-linecap: butt; stroke-dashoffset: 0; stroke-linejoin: miter; stroke-miterlimit: 4; fill: rgb(255,255,255); fill-rule: nonzero; opacity: 1;"  transform=" translate(-293, -279.5)" d="M 461.48 298.35 L 443.7 243.72 a 7.72 7.72 0 0 0 -0.43 -1.47 L 407.6 132.45 a 14.18 14.18 0 0 0 -13.54 -9.67 a 13.94 13.94 0 0 0 -13.38 9.75 l -34 104.63 H 239.37 L 205.32 132.53 A 13.94 13.94 0 0 0 192 122.78 h -0.08 a 14.22 14.22 0 0 0 -13.5 9.76 L 142.72 242.47 c 0 0.1 -0.08 0.18 -0.11 0.28 l -18.1 55.61 a 20.29 20.29 0 0 0 7.37 22.71 L 288.26 434.7 a 8 8 0 0 0 9.45 -0.05 l 0 0 L 454.12 321.07 A 20.28 20.28 0 0 0 461.48 298.35 Z M 227.73 253.22 l 43.59 134.16 L 166.68 253.22 Z m 87 134.19 l 41.8 -128.62 l 1.8 -5.57 h 61.1 L 324.76 374.5 Z m 79.47 -244.58 l 30.63 94.33 H 363.52 Z M 341.49 253.16 l -30.37 93.46 L 293 402.28 L 244.58 253.16 Z M 191.85 142.83 l 30.69 94.33 H 161.27 Z m -50.56 165.3 a 4.31 4.31 0 0 1 -1.56 -4.83 L 153.17 262 l 98.57 126.37 Z m 303.43 0 L 334.26 388.34 l 0.37 -0.48 L 432.83 262 l 13.44 41.28 A 4.31 4.31 0 0 1 444.72 308.12 Z" stroke-linecap="round" />
</g>
</svg>